{"name":"Get DELAYED RESPONSE","id":"testing-api---get;get-delayed-response","testSteps":[{"number":1,"description":"Given User Set Paramater API reqres get DELAYED RESPONSE","duration":3447,"startTime":"2023-09-15T17:42:07.363716+07:00[Asia/Jakarta]","result":"SUCCESS","precondition":false,"level":0,"children":[{"number":2,"description":"GET https://reqres.in/api/users?delay\u003d3","duration":0,"startTime":"2023-09-15T17:42:10.809970+07:00[Asia/Jakarta]","result":"SUCCESS","restQuery":{"method":"GET","path":"https://reqres.in/api/users?delay\u003d3","content":"","contentType":"null","requestHeaders":"Accept\u003d*/*","requestCookies":"","responseHeaders":"Date: Fri, 15 Sep 2023 10:42:10 GMT\nContent-Type: application/json; charset\u003dutf-8\nTransfer-Encoding: chunked\nConnection: keep-alive\nX-Powered-By: Express\nAccess-Control-Allow-Origin: *\nEtag: W/\"3e4-2RLXvr5wTg9YQ6aH95CkYoFNuO8\"\nVia: 1.1 vegur\nCF-Cache-Status: DYNAMIC\nReport-To: {\"endpoints\":[{\"url\":\"https:\\/\\/a.nel.cloudflare.com\\/report\\/v3?s\u003dQUPHeHYj%2FlekL8poqRWHzyZBhvZURqjmPyDP8cyTnZl4PNt0A0%2FEsanboFNpLrZ3KicN4FkTxVWvWzlPLgItB9nSaRNtFaLLKvyIrzMJCj7ipWj%2BsvSfsavxDQ%3D%3D\"}],\"group\":\"cf-nel\",\"max_age\":604800}\nNEL: {\"success_fraction\":0,\"report_to\":\"cf-nel\",\"max_age\":604800}\nServer: cloudflare\nCF-RAY: 807042dcb8c83db9-SIN\nContent-Encoding: gzip","responseCookies":"","responseBody":"{\n    \"page\": 1,\n    \"per_page\": 6,\n    \"total\": 12,\n    \"total_pages\": 2,\n    \"data\": [\n        {\n            \"id\": 1,\n            \"email\": \"george.bluth@reqres.in\",\n            \"first_name\": \"George\",\n            \"last_name\": \"Bluth\",\n            \"avatar\": \"https://reqres.in/img/faces/1-image.jpg\"\n        },\n        {\n            \"id\": 2,\n            \"email\": \"janet.weaver@reqres.in\",\n            \"first_name\": \"Janet\",\n            \"last_name\": \"Weaver\",\n            \"avatar\": \"https://reqres.in/img/faces/2-image.jpg\"\n        },\n        {\n            \"id\": 3,\n            \"email\": \"emma.wong@reqres.in\",\n            \"first_name\": \"Emma\",\n            \"last_name\": \"Wong\",\n            \"avatar\": \"https://reqres.in/img/faces/3-image.jpg\"\n        },\n        {\n            \"id\": 4,\n            \"email\": \"eve.holt@reqres.in\",\n            \"first_name\": \"Eve\",\n            \"last_name\": \"Holt\",\n            \"avatar\": \"https://reqres.in/img/faces/4-image.jpg\"\n        },\n        {\n            \"id\": 5,\n            \"email\": \"charles.morris@reqres.in\",\n            \"first_name\": \"Charles\",\n            \"last_name\": \"Morris\",\n            \"avatar\": \"https://reqres.in/img/faces/5-image.jpg\"\n        },\n        {\n            \"id\": 6,\n            \"email\": \"tracey.ramos@reqres.in\",\n            \"first_name\": \"Tracey\",\n            \"last_name\": \"Ramos\",\n            \"avatar\": \"https://reqres.in/img/faces/6-image.jpg\"\n        }\n    ],\n    \"support\": {\n        \"url\": \"https://reqres.in/#support-heading\",\n        \"text\": \"To keep ReqRes free, contributions towards server costs are appreciated!\"\n    }\n}","statusCode":200},"precondition":false,"level":1}]},{"number":3,"description":"Then Status Code Should be 200 OK","duration":2,"startTime":"2023-09-15T17:42:10.812661+07:00[Asia/Jakarta]","result":"SUCCESS","precondition":false,"level":0},{"number":4,"description":"And Validate get DELAYED RESPONSE json schema","duration":15,"startTime":"2023-09-15T17:42:10.815453+07:00[Asia/Jakarta]","result":"SUCCESS","precondition":false,"level":0}],"userStory":{"id":"testing-api---get","storyName":"Testing API - GET","path":"classpath:features//GET.feature","type":"feature"},"featureTag":{"name":"Testing API - GET","type":"feature","displayName":"Testing API - GET"},"title":"Get DELAYED RESPONSE","description":"","tags":[{"name":"GET","type":"tag","displayName":"GET"},{"name":"REQRES","type":"tag","displayName":"REQRES"},{"name":"Testing API - GET","type":"feature","displayName":"Testing API - GET"}],"startTime":"2023-09-15T17:42:07.361164+07:00[Asia/Jakarta]","duration":3470,"projectKey":"","isManualTestingUpToDate":false,"manual":false,"testSource":"Cucumber","result":"SUCCESS"}