{"name":"Get LIST \u003cRESOURCE\u003e","id":"testing-api---get;get-list-\u003cresource\u003e","testSteps":[{"number":1,"description":"Given User Set Paramater API reqres get LIST RESOURCE","duration":124,"startTime":"2023-09-15T17:42:06.634286+07:00[Asia/Jakarta]","result":"SUCCESS","precondition":false,"level":0,"children":[{"number":2,"description":"GET https://reqres.in/api/unknown","duration":0,"startTime":"2023-09-15T17:42:06.758324+07:00[Asia/Jakarta]","result":"SUCCESS","restQuery":{"method":"GET","path":"https://reqres.in/api/unknown","content":"","contentType":"null","requestHeaders":"Accept\u003d*/*","requestCookies":"","responseHeaders":"Date: Fri, 15 Sep 2023 10:42:06 GMT\nContent-Type: application/json; charset\u003dutf-8\nTransfer-Encoding: chunked\nConnection: keep-alive\nX-Powered-By: Express\nAccess-Control-Allow-Origin: *\nEtag: W/\"2c1-N6Rqerxquq2kgQhL51EiSg4x0R8\"\nVia: 1.1 vegur\nCache-Control: max-age\u003d14400\nCF-Cache-Status: HIT\nAge: 3128\nReport-To: {\"endpoints\":[{\"url\":\"https:\\/\\/a.nel.cloudflare.com\\/report\\/v3?s\u003dBnjhG7FeS2EJzWWgm77IGZRZes55k1enImgUTMUIkH%2BaWP%2F30S2FjchikYEsh9lzknxujKXx6UUtI1ShICgt3e5qYNA7B0DFyl0F9%2B5XYiPBvPqdT%2FTgnr1dPw%3D%3D\"}],\"group\":\"cf-nel\",\"max_age\":604800}\nNEL: {\"success_fraction\":0,\"report_to\":\"cf-nel\",\"max_age\":604800}\nVary: Accept-Encoding\nServer: cloudflare\nCF-RAY: 807042d84b404937-SIN\nContent-Encoding: gzip","responseCookies":"","responseBody":"{\n    \"page\": 1,\n    \"per_page\": 6,\n    \"total\": 12,\n    \"total_pages\": 2,\n    \"data\": [\n        {\n            \"id\": 1,\n            \"name\": \"cerulean\",\n            \"year\": 2000,\n            \"color\": \"#98B2D1\",\n            \"pantone_value\": \"15-4020\"\n        },\n        {\n            \"id\": 2,\n            \"name\": \"fuchsia rose\",\n            \"year\": 2001,\n            \"color\": \"#C74375\",\n            \"pantone_value\": \"17-2031\"\n        },\n        {\n            \"id\": 3,\n            \"name\": \"true red\",\n            \"year\": 2002,\n            \"color\": \"#BF1932\",\n            \"pantone_value\": \"19-1664\"\n        },\n        {\n            \"id\": 4,\n            \"name\": \"aqua sky\",\n            \"year\": 2003,\n            \"color\": \"#7BC4C4\",\n            \"pantone_value\": \"14-4811\"\n        },\n        {\n            \"id\": 5,\n            \"name\": \"tigerlily\",\n            \"year\": 2004,\n            \"color\": \"#E2583E\",\n            \"pantone_value\": \"17-1456\"\n        },\n        {\n            \"id\": 6,\n            \"name\": \"blue turquoise\",\n            \"year\": 2005,\n            \"color\": \"#53B0AE\",\n            \"pantone_value\": \"15-5217\"\n        }\n    ],\n    \"support\": {\n        \"url\": \"https://reqres.in/#support-heading\",\n        \"text\": \"To keep ReqRes free, contributions towards server costs are appreciated!\"\n    }\n}","statusCode":200},"precondition":false,"level":1}]},{"number":3,"description":"Then Status Code Should be 200 OK","duration":1,"startTime":"2023-09-15T17:42:06.759504+07:00[Asia/Jakarta]","result":"SUCCESS","precondition":false,"level":0},{"number":4,"description":"And Validate get LIST RESOURCE json schema","duration":2,"startTime":"2023-09-15T17:42:06.761053+07:00[Asia/Jakarta]","result":"SUCCESS","precondition":false,"level":0}],"userStory":{"id":"testing-api---get","storyName":"Testing API - GET","path":"classpath:features//GET.feature","type":"feature"},"featureTag":{"name":"Testing API - GET","type":"feature","displayName":"Testing API - GET"},"title":"Get LIST \u003cRESOURCE\u003e","description":"","tags":[{"name":"GET","type":"tag","displayName":"GET"},{"name":"REQRES","type":"tag","displayName":"REQRES"},{"name":"Testing API - GET","type":"feature","displayName":"Testing API - GET"}],"startTime":"2023-09-15T17:42:06.632082+07:00[Asia/Jakarta]","duration":132,"projectKey":"","isManualTestingUpToDate":false,"manual":false,"testSource":"Cucumber","result":"SUCCESS"}