{"name":"Get LIST USER","id":"testing-api---get;get-list-user","testSteps":[{"number":1,"description":"Given User Set Paramater API reqres get LIST USERS","duration":1378,"startTime":"2023-09-15T17:42:04.508394+07:00[Asia/Jakarta]","result":"SUCCESS","precondition":false,"level":0,"children":[{"number":2,"description":"GET https://reqres.in/api/users?page\u003d2","duration":0,"startTime":"2023-09-15T17:42:05.885003+07:00[Asia/Jakarta]","result":"SUCCESS","restQuery":{"method":"GET","path":"https://reqres.in/api/users?page\u003d2","content":"","contentType":"null","requestHeaders":"Accept\u003d*/*","requestCookies":"","responseHeaders":"Date: Fri, 15 Sep 2023 10:42:05 GMT\nContent-Type: application/json; charset\u003dutf-8\nTransfer-Encoding: chunked\nConnection: keep-alive\nX-Powered-By: Express\nAccess-Control-Allow-Origin: *\nEtag: W/\"406-ut0vzoCuidvyMf8arZpMpJ6ZRDw\"\nVia: 1.1 vegur\nCache-Control: max-age\u003d14400\nCF-Cache-Status: HIT\nAge: 1919\nReport-To: {\"endpoints\":[{\"url\":\"https:\\/\\/a.nel.cloudflare.com\\/report\\/v3?s\u003d%2FMO3VMnHH5k52b6iLU19Wqg%2FWMJ3VFqxwBpsev%2FpXj4fdF0b7ebf9kNy8hYYOKHADTnl%2B20c3Pp%2Brz%2BL7evPF0EowuhBOB6rL2Su3DE%2BF5p8tzwZqmZTTIprKw%3D%3D\"}],\"group\":\"cf-nel\",\"max_age\":604800}\nNEL: {\"success_fraction\":0,\"report_to\":\"cf-nel\",\"max_age\":604800}\nVary: Accept-Encoding\nServer: cloudflare\nCF-RAY: 807042d2aed687ad-SIN\nContent-Encoding: gzip","responseCookies":"","responseBody":"{\n    \"page\": 2,\n    \"per_page\": 6,\n    \"total\": 12,\n    \"total_pages\": 2,\n    \"data\": [\n        {\n            \"id\": 7,\n            \"email\": \"michael.lawson@reqres.in\",\n            \"first_name\": \"Michael\",\n            \"last_name\": \"Lawson\",\n            \"avatar\": \"https://reqres.in/img/faces/7-image.jpg\"\n        },\n        {\n            \"id\": 8,\n            \"email\": \"lindsay.ferguson@reqres.in\",\n            \"first_name\": \"Lindsay\",\n            \"last_name\": \"Ferguson\",\n            \"avatar\": \"https://reqres.in/img/faces/8-image.jpg\"\n        },\n        {\n            \"id\": 9,\n            \"email\": \"tobias.funke@reqres.in\",\n            \"first_name\": \"Tobias\",\n            \"last_name\": \"Funke\",\n            \"avatar\": \"https://reqres.in/img/faces/9-image.jpg\"\n        },\n        {\n            \"id\": 10,\n            \"email\": \"byron.fields@reqres.in\",\n            \"first_name\": \"Byron\",\n            \"last_name\": \"Fields\",\n            \"avatar\": \"https://reqres.in/img/faces/10-image.jpg\"\n        },\n        {\n            \"id\": 11,\n            \"email\": \"george.edwards@reqres.in\",\n            \"first_name\": \"George\",\n            \"last_name\": \"Edwards\",\n            \"avatar\": \"https://reqres.in/img/faces/11-image.jpg\"\n        },\n        {\n            \"id\": 12,\n            \"email\": \"rachel.howell@reqres.in\",\n            \"first_name\": \"Rachel\",\n            \"last_name\": \"Howell\",\n            \"avatar\": \"https://reqres.in/img/faces/12-image.jpg\"\n        }\n    ],\n    \"support\": {\n        \"url\": \"https://reqres.in/#support-heading\",\n        \"text\": \"To keep ReqRes free, contributions towards server costs are appreciated!\"\n    }\n}","statusCode":200},"precondition":false,"level":1}]},{"number":3,"description":"Then Status Code Should be 200 OK","duration":13,"startTime":"2023-09-15T17:42:05.891245+07:00[Asia/Jakarta]","result":"SUCCESS","precondition":false,"level":0},{"number":4,"description":"And Validate get LIST USERS json schema","duration":134,"startTime":"2023-09-15T17:42:05.905290+07:00[Asia/Jakarta]","result":"SUCCESS","precondition":false,"level":0}],"userStory":{"id":"testing-api---get","storyName":"Testing API - GET","path":"classpath:features//GET.feature","type":"feature"},"featureTag":{"name":"Testing API - GET","type":"feature","displayName":"Testing API - GET"},"title":"Get LIST USER","description":"","tags":[{"name":"GET","type":"tag","displayName":"GET"},{"name":"REQRES","type":"tag","displayName":"REQRES"},{"name":"Testing API - GET","type":"feature","displayName":"Testing API - GET"}],"startTime":"2023-09-15T17:42:04.437375+07:00[Asia/Jakarta]","duration":1603,"projectKey":"","isManualTestingUpToDate":false,"manual":false,"testSource":"Cucumber","result":"SUCCESS"}